{
    "name": "Prestashop Embed",
    "identifier": "psembed",
    "description": {
        "es-ES": "Mejora la experiencia y la navegación de tus seguidores, incrustando tu página web directamente en la aplicación que estás desarrollando. Simplemente entra la dirección de tu página y sincroniza el contenido para ofrecer el mejor servicio a tus clientes.",
        "en-US": "Improve the experience and the navigation of your followers, embedding your web page directly into the application you are developing. Simply enter your web address and synchronize its content to offer the best service to your customers."
    },
    "documentation": {
        "es-ES": "modules/psembed/documentation/es_ES.md",
        "en-US": "modules/psembed/documentation/en_US.md"
    },
    "descriptionShort": {
        "es-ES": "Incrusta una tienda Prestashop en tu App!",
        "en-US": "Embed a Prestashop inside of your app!"
    },
    "icon": "code",
    "type": "A",
    "version": "1.0.0",
    "author": "King of App",
    "category": [
        "prestashop"
    ],
    "price": 0,
    "subscription": false,
    "canContain": false,
    "platforms": [
        "android",
        "ios",
        "windows"
    ],
    "view": "modules/psembed/index.html",
    "files": [
        "modules/psembed/controller.js",
        "modules/psembed/directive.js",
        "modules/psembed/styles.html"
    ],
    "libs": [
        {
            "bower": {
                "iframe-resizer": "^3.5.3"
            },
            "src": "bower_components/iframe-resizer/js/iframeResizer.min.js"
        }
    ],
    "scope": {
        "url": ""
    },
    "config": [
        {
            "templateOptions": {
                "label": "url",
                "pattern": "(https?://)([/\\w.()-]*).*",
                "required": true,
                "description": "url del embed"
            },
            "type": "input",
            "key": "url"
        }
    ],
    "showOn": {
        "menu": true,
        "market": true,
        "dragDrop": true
    },
    "images": {
        "list": "modules/psembed/images/list.png",
        "screenshots": [
            "modules/psembed/images/Embed_screenshot01.png",
            "modules/psembed/images/Embed_screenshot02.png"
        ],
        "popover": "modules/psembed/images/banner1.png",
        "banner": "modules/psembed/images/banner1.png",
        "logo": "modules/psembed/images/icon.png"
    }
}